{"hash":"109157d782eb336ef84a9741fe363cd3284f831b","data":{"posts":{"totalCount":9,"pageInfo":{"totalPages":2,"currentPage":1},"edges":[{"node":{"id":"7637c393ff24f67fb2d043de54210761","index":1,"title":"멋쟁이 사자처럼은 어떤 동아리 인가요?","content":"<p>올해 2020년도 8기부터 '스타트업 사관학교'라는 콘셉트로, 기획부터 개발까지 웹과 창업에 관한 모든 것을 배웁니다. </p>\n"}},{"node":{"id":"58e3eedd41b70c58859448d31c3b023e","index":2,"title":"이제 코딩은 안 배우나요?","content":"<p>코딩 교육은 계속 이어집니다! 학기 시작하면서부터 기획부터 웹 프로그래밍 및 디자인까지 전체적으로 배우게 됩니다!</p>\n"}},{"node":{"id":"a2da26169dfe04ce809cca976e5df0cc","index":3,"title":"멋사에선 무엇을 배우나요?","content":"<p>4월 첫 주부터 프로그래밍은 HTML,CSS, 기본적인 Javascript 그리고 Django까지, <br/>\n기획은 웹 기획에 필요한 모든 것들을 학습할 예정입니다.</p>\n"}},{"node":{"id":"07267e3ac8e805eee5661faa04c4559a","index":4,"title":"언제 어떻게 지원하나요?","content":"<p><strong>3월 9일부터 26일까지</strong> <a href=\"https://jbnu-likelion.web.app/#main\" target=\"_blank\" rel=\"nofollow noopener noreferrer\">메인 페이지</a>의 <a href=\"https://forms.gle/yqFkpiVpoHZEo57q9\" target=\"_blank\" rel=\"nofollow noopener noreferrer\">지원하기</a>를 통해 지원서를 제출하시면 됩니다. 건투를 빕니다!</p>\n"}},{"node":{"id":"fbbab5a39a3e5e3f4a225f5c1de36a49","index":5,"title":"창업과 관련된 동아리인가요? 저는 코딩만 배우고 싶어요.","content":"<p>현업에서 기획자 또는 클라이언트와 소통하는 법도 프로그래머의 필수 조건 중 하나입니다.<br/>\n부담 갖지 마시고 도전하세요!</p>\n"}}]}},"context":{}}