{"hash":"3894919b2bf2f785020106e7f1204cc454241155","data":{"posts":{"totalCount":9,"pageInfo":{"totalPages":2,"currentPage":2},"edges":[{"node":{"id":"e57fd766b0b98e964dca9512d750a3f6","index":6,"title":"상세 일정이 어떻게 되나요?","content":"<p>여름 방학 전까지 매주 오프라인 모임 및 온라인 강의를 통해 개발과 기획에 대해서 동시에 배웁니다.<br/>\n이후 여름 방학에는 단 시간 내 MVP를 만드는 것이 목표입니다.<br/>\n그리고 하반기에 예정된 해커톤에서 좋은 성적을 거두면 12월 VC 앞에서 발표하게 됩니다. 행운을 빕니다!</p>\n"}},{"node":{"id":"002b1c369129a4f141d1e846ff13ad3d","index":7,"title":"회비 어디다 쓰실 건가요?","content":"<p>회비는 여러분 회식, 미니 해커톤 등의 행사 준비로 쓰일 예정입니다.<br/> 예산은 모든 멋사 회원 분들과의 합의 하에 투명하게 소비할 것임을 약속드립니다.</p>\n"}},{"node":{"id":"2170d37d6ecfc211d055624a1f7b04ae","index":8,"title":"회비가 있나요?","content":"<p>중앙 회비는 없습니다. 단, 학교 회비로 2만원을 걷을 예정입니다.</p>\n"}},{"node":{"id":"51dca34a1d71d299df6d116c482f6da0","index":10,"title":"어떤 기준으로 선발하실 건가요?","content":"<p>기획과 개발 두 부분을 모두 고려해 선발할 예정입니다. <br/> 1차 선발 기준은 운영진 <a href=\"https://brunch.co.kr/@petepp\" target=\"_blank\" rel=\"noopener noreferrer\">박종현 님 브런치</a>에 있으니 링크를 클릭해주세요!</p>\n"}}]}},"context":{}}